module gitlab.com/gitlab-org/analytics-section/analytics-manager

go 1.19

require (
	github.com/ClickHouse/clickhouse-go/v2 v2.13.0
	github.com/gin-gonic/gin v1.9.1
	github.com/google/uuid v1.3.0
	github.com/joho/godotenv v1.5.1
	github.com/pressly/goose/v3 v3.15.0
	github.com/prometheus/client_golang v1.18.0
	github.com/stretchr/testify v1.8.4
)

require (
	github.com/ClickHouse/ch-go v0.57.0 // indirect
	github.com/andybalholm/brotli v1.0.5 // indirect
	github.com/beorn7/perks v1.0.1 // indirect
	github.com/bytedance/sonic v1.9.1 // indirect
	github.com/cespare/xxhash/v2 v2.2.0 // indirect
	github.com/chenzhuoyu/base64x v0.0.0-20221115062448-fe3a3abad311 // indirect
	github.com/davecgh/go-spew v1.1.1 // indirect
	github.com/gabriel-vasile/mimetype v1.4.2 // indirect
	github.com/gin-contrib/sse v0.1.0 // indirect
	github.com/go-faster/city v1.0.1 // indirect
	github.com/go-faster/errors v0.6.1 // indirect
	github.com/go-playground/locales v0.14.1 // indirect
	github.com/go-playground/universal-translator v0.18.1 // indirect
	github.com/go-playground/validator/v10 v10.14.0 // indirect
	github.com/goccy/go-json v0.10.2 // indirect
	github.com/json-iterator/go v1.1.12 // indirect
	github.com/klauspost/compress v1.16.7 // indirect
	github.com/klauspost/cpuid/v2 v2.2.4 // indirect
	github.com/leodido/go-urn v1.2.4 // indirect
	github.com/mattn/go-isatty v0.0.19 // indirect
	github.com/matttproud/golang_protobuf_extensions/v2 v2.0.0 // indirect
	github.com/modern-go/concurrent v0.0.0-20180306012644-bacd9c7ef1dd // indirect
	github.com/modern-go/reflect2 v1.0.2 // indirect
	github.com/paulmach/orb v0.10.0 // indirect
	github.com/pelletier/go-toml/v2 v2.0.8 // indirect
	github.com/pierrec/lz4/v4 v4.1.18 // indirect
	github.com/pkg/errors v0.9.1 // indirect
	github.com/pmezard/go-difflib v1.0.0 // indirect
	github.com/prometheus/client_model v0.5.0 // indirect
	github.com/prometheus/common v0.45.0 // indirect
	github.com/prometheus/procfs v0.12.0 // indirect
	github.com/segmentio/asm v1.2.0 // indirect
	github.com/shopspring/decimal v1.3.1 // indirect
	github.com/stretchr/objx v0.5.0 // indirect
	github.com/twitchyliquid64/golang-asm v0.15.1 // indirect
	github.com/ugorji/go/codec v1.2.11 // indirect
	go.opentelemetry.io/otel v1.16.0 // indirect
	go.opentelemetry.io/otel/trace v1.16.0 // indirect
	golang.org/x/arch v0.3.0 // indirect
	golang.org/x/crypto v0.14.0 // indirect
	golang.org/x/net v0.17.0 // indirect
	golang.org/x/sys v0.15.0 // indirect
	golang.org/x/text v0.13.0 // indirect
	google.golang.org/protobuf v1.31.0 // indirect
	gopkg.in/yaml.v3 v3.0.1 // indirect
)
